12, Gilmore, Davidn, HW:, 100, 100, 100, 100, Q:, 100, 100, 100, T:, 100, 100, FE:, 100
32, Wright, Rick, HW:, 90, 90, 90, 90, Q:, 90, 90, 90, T:, 100, 100, FE:, 85
42, Masson, Nick, HW:, 92, 0, 50, 85, Q:, 85, 100, 90, T:, 85, 70, FE:, 73
52, Barret, Syd, HW:, 0, 0, 0, 0, Q:, 100, 100, 100, T:, 80, 80, FE:, 25
4, Waters, Roger, WH:, 70, 70, 70, 70, Q:, 100, 100, 0, T:, 75, 0, FE:, 0
