12 Davidn Gilmore HWA = 100 QA = 100 TA = 100 FE= 100
32 Rick Wright HWA = 90 QA = 90 TA = 100 FE= 85
42 Nick Masson HWA = 56.75 QA = 91.6667 TA = 77.5 FE= 73
52 Syd Barret HWA = 0 QA = 100 TA = 80 FE= 25
4 Roger Waters HWA = 70 QA = 66.6667 TA = 37.5 FE= 0
