  264  cd Repositories/
  266  git clone https://github.com/kleinee/jns pyLabSetup
  268  cd pyLabSetup/
  270  cd scripts/
  271  sudo ./prep.sh 
  272  ./inst_stack.sh 
  273  #!/bin/bash
  274  # script name:     inst_lab_ext.sh
  275  # last modified:   2018/05/29
  276  # sudo:            no
  277  script_name=$(basename -- "$0")
  278  env="/home/pi/.venv/jns"
  279  if [ $(id -u) = 0 ]; then    echo "usage: ./$script_name";    exit 1; fi
  280  . /home/pi/.bashrc
  281  jupyter lab clean
  282  jupyter labextension install @jupyter-widgets/jupyterlab-manager --no-build
  283  jupyter labextension install bqplot --no-build
  284  jupyter labextension install jupyterlab_bokeh --no-build
  285  jupyter lab build
  287  cd Repositories/
  293  ./conf_jupyter.sh 
  295  ./inst_lab_ext.sh 
  296  sudo ./conf_jupyter.sh 
  297  ./conf_jupyter.sh 
  298  bash -i ./inst_lab_ext.sh 
  299  ls
  300  sudo ./inst_jns.sh 
  301  clear
  302  sudo ./inst_jns.sh 
  303  source /home/pi/.venv/jns/bin/activate
  304  echo $PATH 
  305  . ~/.bashrc
  306  echo $PATH 
  307  top
  308  ifconfig
  309  psswd
  310  sudo psswd
  311  passwd
  312  clear
  313  echo $PATH 
  314  source /home/pi/.venv/jns/bin/activate
  315  . ~/.bashrc 
  316  echo $PATH 
  317  jupyter lab
  318  jupyter notebook
  319  clear
  320  jupyter notebook password
  321  which node
  322  cd ~/jns
  323  cd /home/pi/.venv/jns/
  324  ls
  325  cd bin/
  326  ls
  327  cd
  328  ls
  329  cd
  330  ls
  331  mkdir jns
  332  cd jns/
  333  curl -L https://git.io/n-install | bash -s -- -y lts
  334  n-uninstall
  335  sudo apt remove nodejs
  336  curl -L https://git.io/n-install | bash -s -- -y lts
  337  . /home/pi/.bashrc 
  338  echo $PATH

